{
    "fluentMethods": true,
    "relationships": [
        {
            "relationshipType": "many-to-one",
            "relationshipName": "chapter",
            "otherEntityName": "courseChapter",
            "otherEntityField": "id"
        },
        {
            "relationshipType": "many-to-one",
            "relationshipName": "course",
            "otherEntityName": "course",
            "otherEntityField": "id"
        }
    ],
    "fields": [
        {
            "fieldName": "issueType",
            "fieldType": "IssueType",
            "fieldValues": "VIDEO,TEST,TEXT,WEBINAR,SKRATCH",
            "fieldValidateRules": [
                "required"
            ]
        },
        {
            "fieldName": "nameRu",
            "fieldType": "String",
            "fieldValidateRules": [
                "required"
            ]
        },
        {
            "fieldName": "nameKk",
            "fieldType": "String",
            "fieldValidateRules": [
                "required"
            ]
        },
        {
            "fieldName": "nameEn",
            "fieldType": "String"
        },
        {
            "fieldName": "noteRu",
            "fieldType": "String"
        },
        {
            "fieldName": "noteKk",
            "fieldType": "String"
        },
        {
            "fieldName": "noteEn",
            "fieldType": "String"
        },
        {
            "fieldName": "order",
            "fieldType": "BigDecimal"
        },
        {
            "fieldName": "flagDeleted",
            "fieldType": "Boolean"
        }
    ],
    "changelogDate": "20180809044441",
    "entityTableName": "course_issue",
    "dto": "no",
    "pagination": "infinite-scroll",
    "service": "serviceClass",
    "jpaMetamodelFiltering": false,
    "angularJSSuffix": "hCode"
}