{
    "fluentMethods": true,
    "relationships": [
        {
            "relationshipType": "many-to-one",
            "relationshipName": "lecturer",
            "otherEntityName": "user",
            "otherEntityField": "id"
        },
        {
            "relationshipType": "many-to-many",
            "otherEntityRelationshipName": "course",
            "relationshipName": "grade",
            "otherEntityName": "grade",
            "otherEntityField": "id",
            "ownerSide": true
        },
        {
            "relationshipType": "many-to-many",
            "otherEntityRelationshipName": "course",
            "relationshipName": "category",
            "otherEntityName": "category",
            "otherEntityField": "id",
            "ownerSide": true
        },
        {
            "relationshipType": "one-to-many",
            "relationshipName": "courseChapter",
            "otherEntityName": "courseChapter",
            "otherEntityRelationshipName": "course"
        }
    ],
    "fields": [
        {
            "fieldName": "totalIssues",
            "fieldType": "BigDecimal"
        },
        {
            "fieldName": "lecturesAmount",
            "fieldType": "BigDecimal"
        },
        {
            "fieldName": "videoDuration",
            "fieldType": "BigDecimal"
        },
        {
            "fieldName": "nameRu",
            "fieldType": "String",
            "fieldValidateRules": [
                "required"
            ]
        },
        {
            "fieldName": "nameKk",
            "fieldType": "String",
            "fieldValidateRules": [
                "required"
            ]
        },
        {
            "fieldName": "nameEn",
            "fieldType": "String"
        },
        {
            "fieldName": "descriptionRu",
            "fieldType": "String"
        },
        {
            "fieldName": "descriptionKk",
            "fieldType": "String"
        },
        {
            "fieldName": "descriptionEn",
            "fieldType": "String"
        },
        {
            "fieldName": "briefRu",
            "fieldType": "String"
        },
        {
            "fieldName": "briefKk",
            "fieldType": "String"
        },
        {
            "fieldName": "briefEn",
            "fieldType": "String"
        },
        {
            "fieldName": "flagDeleted",
            "fieldType": "Boolean"
        },
        {
            "fieldName": "image",
            "fieldType": "byte[]",
            "fieldTypeBlobContent": "image"
        }
    ],
    "changelogDate": "20180809044439",
    "entityTableName": "course",
    "dto": "no",
    "pagination": "pagination",
    "service": "serviceClass",
    "jpaMetamodelFiltering": false,
    "angularJSSuffix": "hCode"
}